Book of Exploratory Data Analysis - 2 dplyr
…
There are two prerequisites to start: Install tidyverse package and putting the relevant data set into the working directory (write getwd() in the console to locate your working directory). In this document, topic of the data set is the hourly licensed and unlicensed renewable energy production data between January 1, 2018 and May 31, 2020.

To install the package run install.packages("tidyverse") in the console and select a mirror (first one is quite ok). Once you install the library you can always call it with library(tidyverse) command (no need to reinstall). You can download the data set from its GitHub Repository.

library(tidyverse) #tidyverse is a package group which includes dplyr as well
library(lubridate)
raw_df <- readRDS("rp_201801_202005_df.rds")

First of those above commands calls the package (different from installing) The second command assigns the data to raw_df variable. There are two types of assignment operators in R: <- and =. No operation in R is permanent unless you assign it to somewhere (There are exceptions, though. See data.table package for instance.). We will benefit from this property in this document as well. No matter how many operations we do on each example we will always start from the original data frame.

Let’s do a simple sanity check. The output of the following command reads “21,168 x 17” in the first line, which means there are 21,168 rows and 17 columns in the tibble. Tibble is the name of the data.frame type of dplyr. It usually is data frame plus some advanced features. There are abbreviations of data types under each column name. These are usually character/string (), numeric (, if integer ), logical (TRUE/FALSE, logical) (), factor (), date () and datetime (). In the introduction phase we will only use character, numeric and logical data types.

print(raw_df,n=3)

# A tibble: 21,168 × 17
  dt                  wind_lic geothermal_lic biogas_lic canalType_lic
  <dttm>                 <dbl>          <dbl>      <dbl>         <dbl>
1 2020-05-31 23:00:00    1434.           913.       75.8         2585.
2 2020-05-31 22:00:00    1577.           908.       75.6         2631.
3 2020-05-31 21:00:00    1858.           901.       75.4         2585.
# … with 21,165 more rows, and 12 more variables: riverType_lic <dbl>,
#   biomass_lic <dbl>, landfillGas_lic <dbl>, sun_lic <dbl>,
#   reservoir_lic <dbl>, others_lic <dbl>, wind_ul <dbl>, biogas_ul <dbl>,
#   canalType_ul <dbl>, biomass_ul <dbl>, sun_ul <dbl>, others_ul <dbl>
…
We can connect many functions without calling the variable multiple times with the help of the pipe operator.

2.2 Fundamentals

In this chapter fundamental functions of dplyr are introduced. Every function will be used in the following examples after it has been introduced. To limit the number of displayed rows, we use the following global option. You can ignore this part in your exercises.

options(tibble.print_max = 3, tibble.print_min = 3)

2.2.1 select/rename

Select, as the name suggests, is used to select columns. For instance, suppose we only want licensed wind production (wind_lic) and date-time (dt) columns.

raw_df %>% select(dt,wind_lic)

# A tibble: 21,168 × 2
  dt                  wind_lic
  <dttm>                 <dbl>
1 2020-05-31 23:00:00    1434.
2 2020-05-31 22:00:00    1577.
3 2020-05-31 21:00:00    1858.
# … with 21,165 more rows

If we wanted to write the above expression without the pipe operator, we could go with the sad expression below. You can extrapolate how complicated things can be without the pipe.

select(raw_df,dt,wind_lic)

We can use rename to rename columns (again as the name suggests). Let’s change dt to date_time.

raw_df %>% rename(date_time = dt)

# A tibble: 21,168 × 17
  date_time           wind_lic geothermal_lic biogas_lic canalType_lic
  <dttm>                 <dbl>          <dbl>      <dbl>         <dbl>
1 2020-05-31 23:00:00    1434.           913.       75.8         2585.
2 2020-05-31 22:00:00    1577.           908.       75.6         2631.
3 2020-05-31 21:00:00    1858.           901.       75.4         2585.
# … with 21,165 more rows, and 12 more variables: riverType_lic <dbl>,
#   biomass_lic <dbl>, landfillGas_lic <dbl>, sun_lic <dbl>,
#   reservoir_lic <dbl>, others_lic <dbl>, wind_ul <dbl>, biogas_ul <dbl>,
#   canalType_ul <dbl>, biomass_ul <dbl>, sun_ul <dbl>, others_ul <dbl>

p.s. We can rename columns inside select function.

Select has many convenient sub operators and special expressions. If we know the order of columns, we can use the scope (:) expression to get all the columns determined by the scope. Suppose, we want date-time (dt) and licensed production.

raw_df %>% select(date_time=dt,wind_lic:others_lic)

# A tibble: 21,168 × 11
  date_time           wind_lic geothermal_lic biogas_lic canalType_lic
  <dttm>                 <dbl>          <dbl>      <dbl>         <dbl>
1 2020-05-31 23:00:00    1434.           913.       75.8         2585.
2 2020-05-31 22:00:00    1577.           908.       75.6         2631.
3 2020-05-31 21:00:00    1858.           901.       75.4         2585.
# … with 21,165 more rows, and 6 more variables: riverType_lic <dbl>,
#   biomass_lic <dbl>, landfillGas_lic <dbl>, sun_lic <dbl>,
#   reservoir_lic <dbl>, others_lic <dbl>

We can eliminate unwanted columns by putting - before the names. Suppose I am not interested in wind values, want to remove all other related columns from the data set, and all other related column names start with “wind_”. We can do it using - and starts_with.

raw_df %>% select(-starts_with("wind_")) 

# A tibble: 21,168 × 15
  dt                  geothermal_lic biogas_lic canalType_lic riverType_lic
  <dttm>                       <dbl>      <dbl>         <dbl>         <dbl>
1 2020-05-31 23:00:00           913.       75.8         2585.          317.
2 2020-05-31 22:00:00           908.       75.6         2631.          317.
3 2020-05-31 21:00:00           901.       75.4         2585.          357.
# … with 21,165 more rows, and 10 more variables: biomass_lic <dbl>,
#   landfillGas_lic <dbl>, sun_lic <dbl>, reservoir_lic <dbl>,
#   others_lic <dbl>, biogas_ul <dbl>, canalType_ul <dbl>, biomass_ul <dbl>,
#   sun_ul <dbl>, others_ul <dbl>

There are similar expressions for other purposes, such as starts_with, everything and contains. You can see all the expressions in the Cheat Sheet link given at the end of this document.

dplyr 1.0.0 Feature: Sometimes you just want to change the order of the columns. Then use relocate. Suppose we want to show solar and wind production with date-time. But we want to get licensed wind together with licensed solar.

raw_df %>% select(dt,starts_with("sun_"),starts_with("wind")) %>% relocate(wind_lic,.before=sun_ul)

# A tibble: 21,168 × 5
  dt                  sun_lic wind_lic sun_ul wind_ul
  <dttm>                <dbl>    <dbl>  <dbl>   <dbl>
1 2020-05-31 23:00:00       0    1434. 0.0582    3.78
2 2020-05-31 22:00:00       0    1577. 0.032     4.84
3 2020-05-31 21:00:00       0    1858. 0.0335    7.67
# … with 21,165 more rows

If we specify nothing, it will be in the first place.

raw_df %>% select(dt,starts_with("sun_"),starts_with("wind")) %>% relocate(wind_lic)

# A tibble: 21,168 × 5
  wind_lic dt                  sun_lic sun_ul wind_ul
     <dbl> <dttm>                <dbl>  <dbl>   <dbl>
1    1434. 2020-05-31 23:00:00       0 0.0582    3.78
2    1577. 2020-05-31 22:00:00       0 0.032     4.84
3    1858. 2020-05-31 21:00:00       0 0.0335    7.67
# … with 21,165 more rows

We use last_col() if we want to take a column to the end.

raw_df %>% select(dt,starts_with("sun_"),starts_with("wind")) %>% relocate(dt,.after=last_col())

# A tibble: 21,168 × 5
  sun_lic sun_ul wind_lic wind_ul dt                 
    <dbl>  <dbl>    <dbl>   <dbl> <dttm>             
1       0 0.0582    1434.    3.78 2020-05-31 23:00:00
2       0 0.032     1577.    4.84 2020-05-31 22:00:00
3       0 0.0335    1858.    7.67 2020-05-31 21:00:00
# … with 21,165 more rows
…
Did you notice ~ and . in the function? Dot (.) is a representation of the entity. Depending on the situation it can be the latest version of the tibble in the pipe chain, a specific column or something else. ~ is a special character notifying that function evaluation will be done using the dot notation. We will see more examples of that.

Let’s introduce where. If is a function from tidyselect package to select variables with a function where it returns TRUE. It is quite handy.

raw_df %>% select(dt,starts_with("sun_"),starts_with("wind")) %>% relocate(where(is.numeric))

# A tibble: 21,168 × 5
  sun_lic sun_ul wind_lic wind_ul dt                 
    <dbl>  <dbl>    <dbl>   <dbl> <dttm>             
1       0 0.0582    1434.    3.78 2020-05-31 23:00:00
2       0 0.032     1577.    4.84 2020-05-31 22:00:00
3       0 0.0335    1858.    7.67 2020-05-31 21:00:00
# … with 21,165 more rows

We can also use any_of or all_of functions in select. The main difference is while the former returns as much as it can, the latter will throw an error if any one of the criteria is not fulfilled. Let’s try to select “dt”, “others_lic” and “nuclear_lic”. Since this data does not include nuclear power production we should not see it.

raw_df %>% select(any_of(c("dt","others_lic","nuclear_lic")))

# A tibble: 21,168 × 2
  dt                  others_lic
  <dttm>                   <dbl>
1 2020-05-31 23:00:00       48.4
2 2020-05-31 22:00:00       48.4
3 2020-05-31 21:00:00       48.4
# … with 21,165 more rows
…
By using == operator, we bring the values in dt column which are equal to the hour we desired. There are other expressions such as not equal to (!=), greater than (or equal to) (>,>=), smaller than (or equal to) (<,<=), in (%in%) and some more.

At the same time we can make comparisons between columns and combine multiple criteria to create more complex filters. Here we use AND (&) and OR (|) operators to combine criteria.

Suppose we want to find our the times when licensed wind production is greater than all of hydro type licensed production.

raw_df %>% filter(wind_lic > canalType_lic & wind_lic > reservoir_lic & wind_lic > riverType_lic)

# A tibble: 11,287 × 17
  dt                  wind_lic geothermal_lic biogas_lic canalType_lic
  <dttm>                 <dbl>          <dbl>      <dbl>         <dbl>
1 2020-05-27 19:00:00    3303.           930.       74.7         2969.
2 2020-05-27 18:00:00    3596.           914.       75.0         2953.
3 2020-05-27 17:00:00    3551.           900.       76.3         2954.
# … with 11,284 more rows, and 12 more variables: riverType_lic <dbl>,
#   biomass_lic <dbl>, landfillGas_lic <dbl>, sun_lic <dbl>,
#   reservoir_lic <dbl>, others_lic <dbl>, wind_ul <dbl>, biogas_ul <dbl>,
#   canalType_ul <dbl>, biomass_ul <dbl>, sun_ul <dbl>, others_ul <dbl>

We can add numeric operations as well. Suppose we want to find the total solar production is greater than total wind production.

raw_df %>% filter(wind_lic + wind_ul < sun_lic + sun_ul)

# A tibble: 4,949 × 17
  dt                  wind_lic geothermal_lic biogas_lic canalType_lic
  <dttm>                 <dbl>          <dbl>      <dbl>         <dbl>
1 2020-05-31 16:00:00    2036.           843.       76.8         2616.
2 2020-05-31 15:00:00    1875.           845.       77.4         2685.
3 2020-05-31 14:00:00    1755.           853.       77.2         2715.
# … with 4,946 more rows, and 12 more variables: riverType_lic <dbl>,
#   biomass_lic <dbl>, landfillGas_lic <dbl>, sun_lic <dbl>,
#   reservoir_lic <dbl>, others_lic <dbl>, wind_ul <dbl>, biogas_ul <dbl>,
#   canalType_ul <dbl>, biomass_ul <dbl>, sun_ul <dbl>, others_ul <dbl>

Suppose we want to filter only the unique values. Then we simply use distinct command. Let’s get unique rounded licensed wind production values.

raw_df %>% distinct(round(wind_lic))

# A tibble: 4,893 × 1
  `round(wind_lic)`
              <dbl>
1              1434
2              1577
3              1858
# … with 4,890 more rows

If we want to keep all columns we simply make the parameter .keep=TRUE.

raw_df %>% distinct(round(wind_lic),.keep=TRUE)

# A tibble: 4,893 × 2
  `round(wind_lic)` .keep
              <dbl> <lgl>
1              1434 TRUE 
2              1577 TRUE 
3              1858 TRUE 
# … with 4,890 more rows
…
If we want to return random rows we have slice_sample. Let’s bring 5 random rows.

raw_df %>% slice_sample(n=5)

# A tibble: 5 × 17
  dt                  wind_lic geothermal_lic biogas_lic canalType_lic
  <dttm>                 <dbl>          <dbl>      <dbl>         <dbl>
1 2019-07-27 11:00:00    1891.           697.       82.9         1254.
2 2019-06-16 07:00:00    1834.           827.       76.2         2126.
3 2019-11-17 18:00:00     762.           802.       80.8          652.
# … with 2 more rows, and 12 more variables: riverType_lic <dbl>,
#   biomass_lic <dbl>, landfillGas_lic <dbl>, sun_lic <dbl>,
#   reservoir_lic <dbl>, others_lic <dbl>, wind_ul <dbl>, biogas_ul <dbl>,
#   canalType_ul <dbl>, biomass_ul <dbl>, sun_ul <dbl>, others_ul <dbl>

If we want to do it proportionately, we have the prop parameter. Let’s say we want 0.1% of the data frame.

raw_df %>% slice_sample(prop=0.001)

# A tibble: 21 × 17
  dt                  wind_lic geothermal_lic biogas_lic canalType_lic
  <dttm>                 <dbl>          <dbl>      <dbl>         <dbl>
1 2019-06-13 06:00:00    1567.           838.       74.0         2309.
2 2019-07-22 23:00:00    4420.           719.       81.9         1480.
3 2019-04-12 18:00:00    2337.           814.       84.5         4113.
# … with 18 more rows, and 12 more variables: riverType_lic <dbl>,
#   biomass_lic <dbl>, landfillGas_lic <dbl>, sun_lic <dbl>,
#   reservoir_lic <dbl>, others_lic <dbl>, wind_ul <dbl>, biogas_ul <dbl>,
#   canalType_ul <dbl>, biomass_ul <dbl>, sun_ul <dbl>, others_ul <dbl>

There are other slice_* type functions. These are slice_head/slice_tail for first/last n or percentage of rows. slice_min/slice_max for the top/bottom n rows according to an ordering criteria.

2.2.3 arrange

Arrange sorts rows from A to Z or smallest to largest. It has great similarity with Excel’s Sort functionality.

Let’s sort licensed reservoir production from largest to smallest.

raw_df %>% select(dt,reservoir_lic) %>% arrange(desc(reservoir_lic))

# A tibble: 21,168 × 2
  dt                  reservoir_lic
  <dttm>                      <dbl>
1 2019-05-10 23:00:00         5058.
2 2019-05-10 21:00:00         5035.
3 2019-05-15 02:00:00         5019.
# … with 21,165 more rows

Do you see desc() function inside arrange? By default arrange sorts a column by first to last or A-Z. desc reverses this.

You can also use multiple sorting criteria and use operations inside arrange. Let’s arrange by licensed wind production rounded down (floor) in 100s range (e.g. 5634 = 5600 and 5693 = 5600 as well). Then we sort by date time to see the first time the production entered a 100-range in the data time period.

raw_df %>% arrange(desc(floor(wind_lic/100)*100),dt)

# A tibble: 21,168 × 17
  dt                  wind_lic geothermal_lic biogas_lic canalType_lic
  <dttm>                 <dbl>          <dbl>      <dbl>         <dbl>
1 2019-09-15 17:00:00    5767.           691.       83.0          922.
2 2018-09-26 19:00:00    5622.           672.       67.8          951.
3 2019-09-15 15:00:00    5628.           692.       81.4          901.
# … with 21,165 more rows, and 12 more variables: riverType_lic <dbl>,
#   biomass_lic <dbl>, landfillGas_lic <dbl>, sun_lic <dbl>,
#   reservoir_lic <dbl>, others_lic <dbl>, wind_ul <dbl>, biogas_ul <dbl>,
#   canalType_ul <dbl>, biomass_ul <dbl>, sun_ul <dbl>, others_ul <dbl>

2.2.4 mutate/transmute

Mutate is the function when we do operations and calculations using other columns.

For instance let’s calculate wind power’s share in total renewables production at each hour.

raw_df %>% mutate(wind_lic_perc = wind_lic / (wind_lic + geothermal_lic + biogas_lic + canalType_lic + riverType_lic + biomass_lic + landfillGas_lic + sun_lic + reservoir_lic + others_lic + wind_ul + biogas_ul + canalType_ul + biomass_ul + sun_ul + others_ul)) %>% select(dt, wind_lic_perc)

# A tibble: 21,168 × 2
  dt                  wind_lic_perc
  <dttm>                      <dbl>
1 2020-05-31 23:00:00         0.177
2 2020-05-31 22:00:00         0.191
3 2020-05-31 21:00:00         0.219
# … with 21,165 more rows

You can use many R functions (from both base functions and other packages). For instance to calculate “competition” wind and solar we can use the following expression.

raw_df %>% mutate(wind_or_solar = ifelse(wind_lic + wind_ul > sun_lic + sun_ul, "wind", "solar")) %>% select(dt,wind_or_solar)

# A tibble: 21,168 × 2
  dt                  wind_or_solar
  <dttm>              <chr>        
1 2020-05-31 23:00:00 wind         
2 2020-05-31 22:00:00 wind         
3 2020-05-31 21:00:00 wind         
# … with 21,165 more rows

Transmute has the same functionality as mutate with the additional property similar to select. Transmute returns only the columns included in the function. Suppose we also want to calculate the difference between total wind and total solar.

raw_df %>% transmute(dt, wind_or_solar = ifelse(wind_lic + wind_ul > sun_lic + sun_ul, "wind", "solar"), absdiff = abs(wind_lic + wind_ul - sun_lic - sun_ul))

# A tibble: 21,168 × 3
  dt                  wind_or_solar absdiff
  <dttm>              <chr>           <dbl>
1 2020-05-31 23:00:00 wind            1438.
2 2020-05-31 22:00:00 wind            1582.
3 2020-05-31 21:00:00 wind            1865.
# … with 21,165 more rows

2.2.4.1 mutate/transmute advanced usage

Suppose we want to see the difference between the previous and next hour’s production. We offset rows using lead and lag functions. But remember lead and lag does not actually give you “next/previous hour’s” values, just the rows. You may need to arrange your data.

raw_df %>% transmute(dt, wind_lic, wind_lic_prev_h = lead(wind_lic,1), wind_lic_next_h = lag(wind_lic,1))

# A tibble: 21,168 × 4
  dt                  wind_lic wind_lic_prev_h wind_lic_next_h
  <dttm>                 <dbl>           <dbl>           <dbl>
1 2020-05-31 23:00:00    1434.           1577.             NA 
2 2020-05-31 22:00:00    1577.           1858.           1434.
3 2020-05-31 21:00:00    1858.           1933.           1577.
# … with 21,165 more rows

If you want to use the same function over several columns, you can use the new across function. Let’s round every numeric column to one significant digit.

raw_df %>% mutate(across(where(is.numeric),~round(.,1)))

# A tibble: 21,168 × 17
  dt                  wind_lic geothermal_lic biogas_lic canalType_lic
  <dttm>                 <dbl>          <dbl>      <dbl>         <dbl>
1 2020-05-31 23:00:00    1434.           913.       75.8         2585.
2 2020-05-31 22:00:00    1577.           908.       75.6         2631.
3 2020-05-31 21:00:00    1858.           901.       75.4         2585 
# … with 21,165 more rows, and 12 more variables: riverType_lic <dbl>,
#   biomass_lic <dbl>, landfillGas_lic <dbl>, sun_lic <dbl>,
#   reservoir_lic <dbl>, others_lic <dbl>, wind_ul <dbl>, biogas_ul <dbl>,
#   canalType_ul <dbl>, biomass_ul <dbl>, sun_ul <dbl>, others_ul <dbl>

We can also specify columns. Let’s see the comparative production of wind and reservoir hydro against the unlicensed solar production. We just increment solar production by 1 to prevent any infinity values.

raw_df %>% mutate(sun_ul = sun_ul + 1) %>% transmute(dt,across(c(wind_lic,reservoir_lic),~round(./sun_ul,2)))

# A tibble: 21,168 × 3
  dt                  wind_lic reservoir_lic
  <dttm>                 <dbl>         <dbl>
1 2020-05-31 23:00:00    1355.         2179.
2 2020-05-31 22:00:00    1528.         2225.
3 2020-05-31 21:00:00    1797.         2205.
# … with 21,165 more rows
…
