Book of Exploratory Data Analysis (EDA) - Website parsing with rvest
…
[[2]]
# A tibble: 1 × 1
  X1                              
  <chr>                           
1 Seçilen Aya Ait Sektörel Gelişim

[[3]]
# A tibble: 1 × 1
  X1                                                                            
  <chr>                                                                         
1 "Yıl:\n                    2023202220212020201920182017201620152014Ay:\n     …

[[4]]
# A tibble: 29 × 5
   X1                                     X2                   X3    X4    X5   
   <chr>                                  <chr>                <chr> <chr> <chr>
 1 İşyeri Grubu                           İşlem Adedi          İşle… "İşl… "İşl…
 2 İşyeri Grubu                           İşlem Adedi(Kredi K… İşle… "İşl… "İşl…
 3 ARABA KİRALAMA                         341.271              70.9… "212… "23,…
 4 ARAÇ KİRALAMA-SATIŞ/SERVİS/YEDEK PARÇA 3.497.791            969.… "2.6… "217…
 5 BENZİN VE YAKIT İSTASYONLARI           27.488.661           11.6… "5.6… "1.0…
 6 BIREYSEL EMEKLILIK                     2.078.609            2.043 "771… "1,0…
 7 ÇEŞİTLİ GIDA                           33.777.181           21.5… "5.2… "1.1…
 8 DOĞRUDAN PAZARLAMA                     627.712              60.3… "728… "11,…
 9 EĞİTİM / KIRTASİYE / OFİS MALZEMELERİ  6.274.208            3.56… "2.0… "337…
10 ELEKTRİK-ELEKTRONİK EŞYA, BİLGİSAYAR   8.809.733            2.60… "4.1… "522…
# ℹ 19 more rows
…
    # by credit card (cc) or debit card (dc)
    rename(category = 1, num_txn_cc = 2, num_txn_dc = 3, val_txn_cc = 4, val_txn_dc = 5) %>%
    # remove the first two rows because they are actually titles
    slice(-(1:2)) %>%
    # then convert every numeric value by using parse_number function from readr
    mutate(
        across(
            -category,
            ~ readr::parse_number(.,
                locale = readr::locale(decimal_mark = ",", grouping_mark = ".")
            )
        )
    )

# A tibble: 27 × 5
   category                          num_txn_cc num_txn_dc val_txn_cc val_txn_dc
   <chr>                                  <dbl>      <dbl>      <dbl>      <dbl>
 1 ARABA KİRALAMA                        341271      70947       212.      23.2 
 2 ARAÇ KİRALAMA-SATIŞ/SERVİS/YEDEK…    3497791     969202      2676.     217.  
 3 BENZİN VE YAKIT İSTASYONLARI        27488661   11642138      5608.    1060.  
 4 BIREYSEL EMEKLILIK                   2078609       2043       772.       1.03
 5 ÇEŞİTLİ GIDA                        33777181   21569718      5284.    1124.  
 6 DOĞRUDAN PAZARLAMA                    627712      60381       728.      11.2 
 7 EĞİTİM / KIRTASİYE / OFİS MALZEM…    6274208    3565787      2044.     337.  
 8 ELEKTRİK-ELEKTRONİK EŞYA, BİLGİS…    8809733    2609689      4185.     523.  
 9 GİYİM VE AKSESUAR                   26750805   12487879      5670.    1957.  
10 HAVAYOLLARI                          2013912     589812      2033.     755.  
# ℹ 17 more rows
…
